{
  "interactionModel": {
    "languageModel": {
      "invocationName": "benchmark experiment",
      "intents": [
        {
          "name": "AMAZON.CancelIntent",
          "samples": []
        },
        {
          "name": "AMAZON.HelpIntent",
          "samples": []
        },
        {
          "name": "AMAZON.StopIntent",
          "samples": []
        },
        {
          "name": "AMAZON.NavigateHomeIntent",
          "samples": []
        },
        {
          "name": "userSaysHi",
          "slots": [],
          "samples": [
            "just going to say hi",
            "heya",
            "hello hi",
            "howdy",
            "hey there",
            "hi there",
            "greetings",
            "hey",
            "long time no see",
            "hello",
            "lovely day isn't it",
            "i greet you",
            "hello again",
            "hi",
            "hello there",
            "hi there",
            "a good day"
          ]
        },
        {
          "name": "orderDrink",
          "slots": [
            {
              "name": "roast",
              "type": "roast"
            },
            {
              "name": "size",
              "type": "size"
            },
            {
              "name": "coffeeDrink",
              "type": "coffeeDrink"
            },
            {
              "name": "milkAmount",
              "type": "milkAmount"
            },
            {
              "name": "sugarAmount",
              "type": "sugarAmount"
            },
            {
              "name": "numberOfShots",
              "type": "numberOfShots"
            }
          ],
          "samples": [
            "brew a {roast} {size} {coffeeDrink} with {milkAmount} and {sugarAmount}",
            "can i get a {roast} {size} {coffeeDrink} with {milkAmount} and {sugarAmount}",
            "can i have a {roast} {size} {coffeeDrink} with {milkAmount} and {sugarAmount}",
            "i want a {roast} {size} {coffeeDrink} with {milkAmount} and {sugarAmount}",
            "get me a {roast} {size} {coffeeDrink} with {milkAmount} and {sugarAmount}",
            "give me a {roast} {size} {coffeeDrink} with {milkAmount} and {sugarAmount}",
            "i'd like a {roast} {size} {coffeeDrink} with {milkAmount} and {sugarAmount}",
            "make me a {roast} {size} {coffeeDrink} with {milkAmount} and {sugarAmount}",
            "may i have a {roast} {size} {coffeeDrink} with {milkAmount} and {sugarAmount}",
            "brew a {roast} {size} {coffeeDrink} with {sugarAmount} and {milkAmount}",
            "can i get a {roast} {size} {coffeeDrink} with {sugarAmount} and {milkAmount}",
            "can i have a {roast} {size} {coffeeDrink} with {sugarAmount} and {milkAmount}",
            "i want a {roast} {size} {coffeeDrink} with {sugarAmount} and {milkAmount}",
            "get me a {roast} {size} {coffeeDrink} with {sugarAmount} and {milkAmount}",
            "give me a {roast} {size} {coffeeDrink} with {sugarAmount} and {milkAmount}",
            "i'd like a {roast} {size} {coffeeDrink} with {sugarAmount} and {milkAmount}",
            "make me a {roast} {size} {coffeeDrink} with {sugarAmount} and {milkAmount}",
            "may i have a {roast} {size} {coffeeDrink} with {sugarAmount} and {milkAmount}",
            "brew a {size} {roast} {coffeeDrink} with {milkAmount}",
            "can i get a {size} {roast} {coffeeDrink} with {milkAmount}",
            "can i have a {size} {roast} {coffeeDrink} with {milkAmount}",
            "i want a {size} {roast} {coffeeDrink} with {milkAmount}",
            "get me a {size} {roast} {coffeeDrink} with {milkAmount}",
            "give me a {size} {roast} {coffeeDrink} with {milkAmount}",
            "i'd like a {size} {roast} {coffeeDrink} with {milkAmount}",
            "make me a {size} {roast} {coffeeDrink} with {milkAmount}",
            "may i have a {size} {roast} {coffeeDrink} with {milkAmount}",
            "brew a {roast} {size} {coffeeDrink} with {milkAmount}",
            "can i get a {roast} {size} {coffeeDrink} with {milkAmount}",
            "can i have a {roast} {size} {coffeeDrink} with {milkAmount}",
            "i want a {roast} {size} {coffeeDrink} with {milkAmount}",
            "get me a {roast} {size} {coffeeDrink} with {milkAmount}",
            "give me a {roast} {size} {coffeeDrink} with {milkAmount}",
            "i'd like a {roast} {size} {coffeeDrink} with {milkAmount}",
            "make me a {roast} {size} {coffeeDrink} with {milkAmount}",
            "may i have a {roast} {size} {coffeeDrink} with {milkAmount}",
            "brew a {size} {roast} {coffeeDrink} with {sugarAmount}",
            "can i get a {size} {roast} {coffeeDrink} with {sugarAmount}",
            "can i have a {size} {roast} {coffeeDrink} with {sugarAmount}",
            "i want a {size} {roast} {coffeeDrink} with {sugarAmount}",
            "get me a {size} {roast} {coffeeDrink} with {sugarAmount}",
            "give me a {size} {roast} {coffeeDrink} with {sugarAmount}",
            "i'd like a {size} {roast} {coffeeDrink} with {sugarAmount}",
            "make me a {size} {roast} {coffeeDrink} with {sugarAmount}",
            "may i have a {size} {roast} {coffeeDrink} with {sugarAmount}",
            "brew a {roast} {size} {coffeeDrink} with {sugarAmount}",
            "can i get a {roast} {size} {coffeeDrink} with {sugarAmount}",
            "can i have a {roast} {size} {coffeeDrink} with {sugarAmount}",
            "i want a {roast} {size} {coffeeDrink} with {sugarAmount}",
            "get me a {roast} {size} {coffeeDrink} with {sugarAmount}",
            "give me a {roast} {size} {coffeeDrink} with {sugarAmount}",
            "i'd like a {roast} {size} {coffeeDrink} with {sugarAmount}",
            "make me a {roast} {size} {coffeeDrink} with {sugarAmount}",
            "may i have a {roast} {size} {coffeeDrink} with {sugarAmount}",
            "brew a {size} {roast} {coffeeDrink}",
            "can i get a {size} {roast} {coffeeDrink}",
            "can i have a {size} {roast} {coffeeDrink}",
            "i want a {size} {roast} {coffeeDrink}",
            "get me a {size} {roast} {coffeeDrink}",
            "give me a {size} {roast} {coffeeDrink}",
            "i'd like a {size} {roast} {coffeeDrink}",
            "make me a {size} {roast} {coffeeDrink}",
            "may i have a {size} {roast} {coffeeDrink}",
            "brew a {roast} {size} {coffeeDrink}",
            "can i get a {roast} {size} {coffeeDrink}",
            "can i have a {roast} {size} {coffeeDrink}",
            "i want a {roast} {size} {coffeeDrink}",
            "get me a {roast} {size} {coffeeDrink}",
            "give me a {roast} {size} {coffeeDrink}",
            "i'd like a {roast} {size} {coffeeDrink}",
            "make me a {roast} {size} {coffeeDrink}",
            "may i have a {roast} {size} {coffeeDrink}",
            "brew a {size} {numberOfShots} {coffeeDrink} with {milkAmount} and {sugarAmount}",
            "can i get a {size} {numberOfShots} {coffeeDrink} with {milkAmount} and {sugarAmount}",
            "can i have a {size} {numberOfShots} {coffeeDrink} with {milkAmount} and {sugarAmount}",
            "i want a {size} {numberOfShots} {coffeeDrink} with {milkAmount} and {sugarAmount}",
            "get me a {size} {numberOfShots} {coffeeDrink} with {milkAmount} and {sugarAmount}",
            "give me a {size} {numberOfShots} {coffeeDrink} with {milkAmount} and {sugarAmount}",
            "i'd like a {size} {numberOfShots} {coffeeDrink} with {milkAmount} and {sugarAmount}",
            "make me a {size} {numberOfShots} {coffeeDrink} with {milkAmount} and {sugarAmount}",
            "may i have a {size} {numberOfShots} {coffeeDrink} with {milkAmount} and {sugarAmount}",
            "brew a {size} {numberOfShots} {coffeeDrink} with {sugarAmount} and {milkAmount}",
            "can i get a {size} {numberOfShots} {coffeeDrink} with {sugarAmount} and {milkAmount}",
            "can i have a {size} {numberOfShots} {coffeeDrink} with {sugarAmount} and {milkAmount}",
            "i want a {size} {numberOfShots} {coffeeDrink} with {sugarAmount} and {milkAmount}",
            "get me a {size} {numberOfShots} {coffeeDrink} with {sugarAmount} and {milkAmount}",
            "give me a {size} {numberOfShots} {coffeeDrink} with {sugarAmount} and {milkAmount}",
            "i'd like a {size} {numberOfShots} {coffeeDrink} with {sugarAmount} and {milkAmount}",
            "make me a {size} {numberOfShots} {coffeeDrink} with {sugarAmount} and {milkAmount}",
            "may i have a {size} {numberOfShots} {coffeeDrink} with {sugarAmount} and {milkAmount}",
            "brew a {numberOfShots} {size} {coffeeDrink} with {milkAmount} and {sugarAmount}",
            "can i get a {numberOfShots} {size} {coffeeDrink} with {milkAmount} and {sugarAmount}",
            "can i have a {numberOfShots} {size} {coffeeDrink} with {milkAmount} and {sugarAmount}",
            "i want a {numberOfShots} {size} {coffeeDrink} with {milkAmount} and {sugarAmount}",
            "get me a {numberOfShots} {size} {coffeeDrink} with {milkAmount} and {sugarAmount}",
            "give me a {numberOfShots} {size} {coffeeDrink} with {milkAmount} and {sugarAmount}",
            "i'd like a {numberOfShots} {size} {coffeeDrink} with {milkAmount} and {sugarAmount}",
            "make me a {numberOfShots} {size} {coffeeDrink} with {milkAmount} and {sugarAmount}",
            "may i have a {numberOfShots} {size} {coffeeDrink} with {milkAmount} and {sugarAmount}",
            "brew a {numberOfShots} {size} {coffeeDrink} with {sugarAmount} and {milkAmount}",
            "can i get a {numberOfShots} {size} {coffeeDrink} with {sugarAmount} and {milkAmount}",
            "can i have a {numberOfShots} {size} {coffeeDrink} with {sugarAmount} and {milkAmount}",
            "i want a {numberOfShots} {size} {coffeeDrink} with {sugarAmount} and {milkAmount}",
            "get me a {numberOfShots} {size} {coffeeDrink} with {sugarAmount} and {milkAmount}",
            "give me a {numberOfShots} {size} {coffeeDrink} with {sugarAmount} and {milkAmount}",
            "i'd like a {numberOfShots} {size} {coffeeDrink} with {sugarAmount} and {milkAmount}",
            "make me a {numberOfShots} {size} {coffeeDrink} with {sugarAmount} and {milkAmount}",
            "may i have a {numberOfShots} {size} {coffeeDrink} with {sugarAmount} and {milkAmount}",
            "brew a {size} {numberOfShots} {coffeeDrink} with {milkAmount}",
            "can i get a {size} {numberOfShots} {coffeeDrink} with {milkAmount}",
            "can i have a {size} {numberOfShots} {coffeeDrink} with {milkAmount}",
            "i want a {size} {numberOfShots} {coffeeDrink} with {milkAmount}",
            "get me a {size} {numberOfShots} {coffeeDrink} with {milkAmount}",
            "give me a {size} {numberOfShots} {coffeeDrink} with {milkAmount}",
            "i'd like a {size} {numberOfShots} {coffeeDrink} with {milkAmount}",
            "make me a {size} {numberOfShots} {coffeeDrink} with {milkAmount}",
            "may i have a {size} {numberOfShots} {coffeeDrink} with {milkAmount}",
            "brew a {numberOfShots} {size} {coffeeDrink} with {milkAmount}",
            "can i get a {numberOfShots} {size} {coffeeDrink} with {milkAmount}",
            "can i have a {numberOfShots} {size} {coffeeDrink} with {milkAmount}",
            "i want a {numberOfShots} {size} {coffeeDrink} with {milkAmount}",
            "get me a {numberOfShots} {size} {coffeeDrink} with {milkAmount}",
            "give me a {numberOfShots} {size} {coffeeDrink} with {milkAmount}",
            "i'd like a {numberOfShots} {size} {coffeeDrink} with {milkAmount}",
            "make me a {numberOfShots} {size} {coffeeDrink} with {milkAmount}",
            "may i have a {numberOfShots} {size} {coffeeDrink} with {milkAmount}",
            "brew a {size} {numberOfShots} {coffeeDrink} with {sugarAmount}",
            "can i get a {size} {numberOfShots} {coffeeDrink} with {sugarAmount}",
            "can i have a {size} {numberOfShots} {coffeeDrink} with {sugarAmount}",
            "i want a {size} {numberOfShots} {coffeeDrink} with {sugarAmount}",
            "get me a {size} {numberOfShots} {coffeeDrink} with {sugarAmount}",
            "give me a {size} {numberOfShots} {coffeeDrink} with {sugarAmount}",
            "i'd like a {size} {numberOfShots} {coffeeDrink} with {sugarAmount}",
            "make me a {size} {numberOfShots} {coffeeDrink} with {sugarAmount}",
            "may i have a {size} {numberOfShots} {coffeeDrink} with {sugarAmount}",
            "brew a {numberOfShots} {size} {coffeeDrink} with {sugarAmount}",
            "can i get a {numberOfShots} {size} {coffeeDrink} with {sugarAmount}",
            "can i have a {numberOfShots} {size} {coffeeDrink} with {sugarAmount}",
            "i want a {numberOfShots} {size} {coffeeDrink} with {sugarAmount}",
            "get me a {numberOfShots} {size} {coffeeDrink} with {sugarAmount}",
            "give me a {numberOfShots} {size} {coffeeDrink} with {sugarAmount}",
            "i'd like a {numberOfShots} {size} {coffeeDrink} with {sugarAmount}",
            "make me a {numberOfShots} {size} {coffeeDrink} with {sugarAmount}",
            "may i have a {numberOfShots} {size} {coffeeDrink} with {sugarAmount}",
            "brew a {size} {numberOfShots} {coffeeDrink}",
            "can i get a {size} {numberOfShots} {coffeeDrink}",
            "can i have a {size} {numberOfShots} {coffeeDrink}",
            "i want a {size} {numberOfShots} {coffeeDrink}",
            "get me a {size} {numberOfShots} {coffeeDrink}",
            "give me a {size} {numberOfShots} {coffeeDrink}",
            "i'd like a {size} {numberOfShots} {coffeeDrink}",
            "make me a {size} {numberOfShots} {coffeeDrink}",
            "may i have a {size} {numberOfShots} {coffeeDrink}",
            "brew a {numberOfShots} {size} {coffeeDrink}",
            "can i get a {numberOfShots} {size} {coffeeDrink}",
            "can i have a {numberOfShots} {size} {coffeeDrink}",
            "i want a {numberOfShots} {size} {coffeeDrink}",
            "get me a {numberOfShots} {size} {coffeeDrink}",
            "give me a {numberOfShots} {size} {coffeeDrink}",
            "i'd like a {numberOfShots} {size} {coffeeDrink}",
            "make me a {numberOfShots} {size} {coffeeDrink}",
            "may i have a {numberOfShots} {size} {coffeeDrink}",
            "brew a {size} {coffeeDrink} with {milkAmount} and {sugarAmount}",
            "can i get a {size} {coffeeDrink} with {milkAmount} and {sugarAmount}",
            "can i have a {size} {coffeeDrink} with {milkAmount} and {sugarAmount}",
            "i want a {size} {coffeeDrink} with {milkAmount} and {sugarAmount}",
            "get me a {size} {coffeeDrink} with {milkAmount} and {sugarAmount}",
            "give me a {size} {coffeeDrink} with {milkAmount} and {sugarAmount}",
            "i'd like a {size} {coffeeDrink} with {milkAmount} and {sugarAmount}",
            "make me a {size} {coffeeDrink} with {milkAmount} and {sugarAmount}",
            "may i have a {size} {coffeeDrink} with {milkAmount} and {sugarAmount}",
            "brew a {size} {coffeeDrink} with {sugarAmount} and {milkAmount}",
            "can i get a {size} {coffeeDrink} with {sugarAmount} and {milkAmount}",
            "can i have a {size} {coffeeDrink} with {sugarAmount} and {milkAmount}",
            "i want a {size} {coffeeDrink} with {sugarAmount} and {milkAmount}",
            "get me a {size} {coffeeDrink} with {sugarAmount} and {milkAmount}",
            "give me a {size} {coffeeDrink} with {sugarAmount} and {milkAmount}",
            "i'd like a {size} {coffeeDrink} with {sugarAmount} and {milkAmount}",
            "make me a {size} {coffeeDrink} with {sugarAmount} and {milkAmount}",
            "may i have a {size} {coffeeDrink} with {sugarAmount} and {milkAmount}",
            "brew a {size} {coffeeDrink} with {milkAmount}",
            "can i get a {size} {coffeeDrink} with {milkAmount}",
            "can i have a {size} {coffeeDrink} with {milkAmount}",
            "i want a {size} {coffeeDrink} with {milkAmount}",
            "get me a {size} {coffeeDrink} with {milkAmount}",
            "give me a {size} {coffeeDrink} with {milkAmount}",
            "i'd like a {size} {coffeeDrink} with {milkAmount}",
            "make me a {size} {coffeeDrink} with {milkAmount}",
            "may i have a {size} {coffeeDrink} with {milkAmount}",
            "brew a {size} {coffeeDrink} with {sugarAmount}",
            "can i get a {size} {coffeeDrink} with {sugarAmount}",
            "can i have a {size} {coffeeDrink} with {sugarAmount}",
            "i want a {size} {coffeeDrink} with {sugarAmount}",
            "get me a {size} {coffeeDrink} with {sugarAmount}",
            "give me a {size} {coffeeDrink} with {sugarAmount}",
            "i'd like a {size} {coffeeDrink} with {sugarAmount}",
            "make me a {size} {coffeeDrink} with {sugarAmount}",
            "may i have a {size} {coffeeDrink} with {sugarAmount}",
            "brew a {size} {coffeeDrink}",
            "can i get a {size} {coffeeDrink}",
            "can i have a {size} {coffeeDrink}",
            "i want a {size} {coffeeDrink}",
            "get me a {size} {coffeeDrink}",
            "give me a {size} {coffeeDrink}",
            "i'd like a {size} {coffeeDrink}",
            "make me a {size} {coffeeDrink}",
            "may i have a {size} {coffeeDrink}",
            "brew a {roast} {numberOfShots} {coffeeDrink} with {milkAmount} and {sugarAmount}",
            "can i get a {roast} {numberOfShots} {coffeeDrink} with {milkAmount} and {sugarAmount}",
            "can i have a {roast} {numberOfShots} {coffeeDrink} with {milkAmount} and {sugarAmount}",
            "i want a {roast} {numberOfShots} {coffeeDrink} with {milkAmount} and {sugarAmount}",
            "get me a {roast} {numberOfShots} {coffeeDrink} with {milkAmount} and {sugarAmount}",
            "give me a {roast} {numberOfShots} {coffeeDrink} with {milkAmount} and {sugarAmount}",
            "i'd like a {roast} {numberOfShots} {coffeeDrink} with {milkAmount} and {sugarAmount}",
            "make me a {roast} {numberOfShots} {coffeeDrink} with {milkAmount} and {sugarAmount}",
            "may i have a {roast} {numberOfShots} {coffeeDrink} with {milkAmount} and {sugarAmount}",
            "brew a {roast} {numberOfShots} {coffeeDrink} with {sugarAmount} and {milkAmount}",
            "can i get a {roast} {numberOfShots} {coffeeDrink} with {sugarAmount} and {milkAmount}",
            "can i have a {roast} {numberOfShots} {coffeeDrink} with {sugarAmount} and {milkAmount}",
            "i want a {roast} {numberOfShots} {coffeeDrink} with {sugarAmount} and {milkAmount}",
            "get me a {roast} {numberOfShots} {coffeeDrink} with {sugarAmount} and {milkAmount}",
            "give me a {roast} {numberOfShots} {coffeeDrink} with {sugarAmount} and {milkAmount}",
            "i'd like a {roast} {numberOfShots} {coffeeDrink} with {sugarAmount} and {milkAmount}",
            "make me a {roast} {numberOfShots} {coffeeDrink} with {sugarAmount} and {milkAmount}",
            "may i have a {roast} {numberOfShots} {coffeeDrink} with {sugarAmount} and {milkAmount}",
            "brew a {numberOfShots} {roast} {coffeeDrink} with {milkAmount} and {sugarAmount}",
            "can i get a {numberOfShots} {roast} {coffeeDrink} with {milkAmount} and {sugarAmount}",
            "can i have a {numberOfShots} {roast} {coffeeDrink} with {milkAmount} and {sugarAmount}",
            "i want a {numberOfShots} {roast} {coffeeDrink} with {milkAmount} and {sugarAmount}",
            "get me a {numberOfShots} {roast} {coffeeDrink} with {milkAmount} and {sugarAmount}",
            "give me a {numberOfShots} {roast} {coffeeDrink} with {milkAmount} and {sugarAmount}",
            "i'd like a {numberOfShots} {roast} {coffeeDrink} with {milkAmount} and {sugarAmount}",
            "make me a {numberOfShots} {roast} {coffeeDrink} with {milkAmount} and {sugarAmount}",
            "may i have a {numberOfShots} {roast} {coffeeDrink} with {milkAmount} and {sugarAmount}",
            "brew a {numberOfShots} {roast} {coffeeDrink} with {sugarAmount} and {milkAmount}",
            "can i get a {numberOfShots} {roast} {coffeeDrink} with {sugarAmount} and {milkAmount}",
            "can i have a {numberOfShots} {roast} {coffeeDrink} with {sugarAmount} and {milkAmount}",
            "i want a {numberOfShots} {roast} {coffeeDrink} with {sugarAmount} and {milkAmount}",
            "get me a {numberOfShots} {roast} {coffeeDrink} with {sugarAmount} and {milkAmount}",
            "give me a {numberOfShots} {roast} {coffeeDrink} with {sugarAmount} and {milkAmount}",
            "i'd like a {numberOfShots} {roast} {coffeeDrink} with {sugarAmount} and {milkAmount}",
            "make me a {numberOfShots} {roast} {coffeeDrink} with {sugarAmount} and {milkAmount}",
            "may i have a {numberOfShots} {roast} {coffeeDrink} with {sugarAmount} and {milkAmount}",
            "brew a {roast} {numberOfShots} {coffeeDrink} with {milkAmount}",
            "can i get a {roast} {numberOfShots} {coffeeDrink} with {milkAmount}",
            "can i have a {roast} {numberOfShots} {coffeeDrink} with {milkAmount}",
            "i want a {roast} {numberOfShots} {coffeeDrink} with {milkAmount}",
            "get me a {roast} {numberOfShots} {coffeeDrink} with {milkAmount}",
            "give me a {roast} {numberOfShots} {coffeeDrink} with {milkAmount}",
            "i'd like a {roast} {numberOfShots} {coffeeDrink} with {milkAmount}",
            "make me a {roast} {numberOfShots} {coffeeDrink} with {milkAmount}",
            "may i have a {roast} {numberOfShots} {coffeeDrink} with {milkAmount}",
            "brew a {numberOfShots} {roast} {coffeeDrink} with {milkAmount}",
            "can i get a {numberOfShots} {roast} {coffeeDrink} with {milkAmount}",
            "can i have a {numberOfShots} {roast} {coffeeDrink} with {milkAmount}",
            "i want a {numberOfShots} {roast} {coffeeDrink} with {milkAmount}",
            "get me a {numberOfShots} {roast} {coffeeDrink} with {milkAmount}",
            "give me a {numberOfShots} {roast} {coffeeDrink} with {milkAmount}",
            "i'd like a {numberOfShots} {roast} {coffeeDrink} with {milkAmount}",
            "make me a {numberOfShots} {roast} {coffeeDrink} with {milkAmount}",
            "may i have a {numberOfShots} {roast} {coffeeDrink} with {milkAmount}",
            "brew a {roast} {numberOfShots} {coffeeDrink} with {sugarAmount}",
            "can i get a {roast} {numberOfShots} {coffeeDrink} with {sugarAmount}",
            "can i have a {roast} {numberOfShots} {coffeeDrink} with {sugarAmount}",
            "i want a {roast} {numberOfShots} {coffeeDrink} with {sugarAmount}",
            "get me a {roast} {numberOfShots} {coffeeDrink} with {sugarAmount}",
            "give me a {roast} {numberOfShots} {coffeeDrink} with {sugarAmount}",
            "i'd like a {roast} {numberOfShots} {coffeeDrink} with {sugarAmount}",
            "make me a {roast} {numberOfShots} {coffeeDrink} with {sugarAmount}",
            "may i have a {roast} {numberOfShots} {coffeeDrink} with {sugarAmount}",
            "brew a {numberOfShots} {roast} {coffeeDrink} with {sugarAmount}",
            "can i get a {numberOfShots} {roast} {coffeeDrink} with {sugarAmount}",
            "can i have a {numberOfShots} {roast} {coffeeDrink} with {sugarAmount}",
            "i want a {numberOfShots} {roast} {coffeeDrink} with {sugarAmount}",
            "get me a {numberOfShots} {roast} {coffeeDrink} with {sugarAmount}",
            "give me a {numberOfShots} {roast} {coffeeDrink} with {sugarAmount}",
            "i'd like a {numberOfShots} {roast} {coffeeDrink} with {sugarAmount}",
            "make me a {numberOfShots} {roast} {coffeeDrink} with {sugarAmount}",
            "may i have a {numberOfShots} {roast} {coffeeDrink} with {sugarAmount}",
            "brew a {roast} {numberOfShots} {coffeeDrink}",
            "can i get a {roast} {numberOfShots} {coffeeDrink}",
            "can i have a {roast} {numberOfShots} {coffeeDrink}",
            "i want a {roast} {numberOfShots} {coffeeDrink}",
            "get me a {roast} {numberOfShots} {coffeeDrink}",
            "give me a {roast} {numberOfShots} {coffeeDrink}",
            "i'd like a {roast} {numberOfShots} {coffeeDrink}",
            "make me a {roast} {numberOfShots} {coffeeDrink}",
            "may i have a {roast} {numberOfShots} {coffeeDrink}",
            "brew a {numberOfShots} {roast} {coffeeDrink}",
            "can i get a {numberOfShots} {roast} {coffeeDrink}",
            "can i have a {numberOfShots} {roast} {coffeeDrink}",
            "i want a {numberOfShots} {roast} {coffeeDrink}",
            "get me a {numberOfShots} {roast} {coffeeDrink}",
            "give me a {numberOfShots} {roast} {coffeeDrink}",
            "i'd like a {numberOfShots} {roast} {coffeeDrink}",
            "make me a {numberOfShots} {roast} {coffeeDrink}",
            "may i have a {numberOfShots} {roast} {coffeeDrink}",
            "brew a {roast} {coffeeDrink} with {milkAmount} and {sugarAmount}",
            "can i get a {roast} {coffeeDrink} with {milkAmount} and {sugarAmount}",
            "can i have a {roast} {coffeeDrink} with {milkAmount} and {sugarAmount}",
            "i want a {roast} {coffeeDrink} with {milkAmount} and {sugarAmount}",
            "get me a {roast} {coffeeDrink} with {milkAmount} and {sugarAmount}",
            "give me a {roast} {coffeeDrink} with {milkAmount} and {sugarAmount}",
            "i'd like a {roast} {coffeeDrink} with {milkAmount} and {sugarAmount}",
            "make me a {roast} {coffeeDrink} with {milkAmount} and {sugarAmount}",
            "may i have a {roast} {coffeeDrink} with {milkAmount} and {sugarAmount}",
            "brew a {roast} {coffeeDrink} with {sugarAmount} and {milkAmount}",
            "can i get a {roast} {coffeeDrink} with {sugarAmount} and {milkAmount}",
            "can i have a {roast} {coffeeDrink} with {sugarAmount} and {milkAmount}",
            "i want a {roast} {coffeeDrink} with {sugarAmount} and {milkAmount}",
            "get me a {roast} {coffeeDrink} with {sugarAmount} and {milkAmount}",
            "give me a {roast} {coffeeDrink} with {sugarAmount} and {milkAmount}",
            "i'd like a {roast} {coffeeDrink} with {sugarAmount} and {milkAmount}",
            "make me a {roast} {coffeeDrink} with {sugarAmount} and {milkAmount}",
            "may i have a {roast} {coffeeDrink} with {sugarAmount} and {milkAmount}",
            "brew a {roast} {coffeeDrink} with {milkAmount}",
            "can i get a {roast} {coffeeDrink} with {milkAmount}",
            "can i have a {roast} {coffeeDrink} with {milkAmount}",
            "i want a {roast} {coffeeDrink} with {milkAmount}",
            "get me a {roast} {coffeeDrink} with {milkAmount}",
            "give me a {roast} {coffeeDrink} with {milkAmount}",
            "i'd like a {roast} {coffeeDrink} with {milkAmount}",
            "make me a {roast} {coffeeDrink} with {milkAmount}",
            "may i have a {roast} {coffeeDrink} with {milkAmount}",
            "brew a {roast} {coffeeDrink} with {sugarAmount}",
            "can i get a {roast} {coffeeDrink} with {sugarAmount}",
            "can i have a {roast} {coffeeDrink} with {sugarAmount}",
            "i want a {roast} {coffeeDrink} with {sugarAmount}",
            "get me a {roast} {coffeeDrink} with {sugarAmount}",
            "give me a {roast} {coffeeDrink} with {sugarAmount}",
            "i'd like a {roast} {coffeeDrink} with {sugarAmount}",
            "make me a {roast} {coffeeDrink} with {sugarAmount}",
            "may i have a {roast} {coffeeDrink} with {sugarAmount}",
            "brew a {roast} {coffeeDrink}",
            "can i get a {roast} {coffeeDrink}",
            "can i have a {roast} {coffeeDrink}",
            "i want a {roast} {coffeeDrink}",
            "get me a {roast} {coffeeDrink}",
            "give me a {roast} {coffeeDrink}",
            "i'd like a {roast} {coffeeDrink}",
            "make me a {roast} {coffeeDrink}",
            "may i have a {roast} {coffeeDrink}",
            "brew a {numberOfShots} {coffeeDrink} with {milkAmount} and {sugarAmount}",
            "can i get a {numberOfShots} {coffeeDrink} with {milkAmount} and {sugarAmount}",
            "can i have a {numberOfShots} {coffeeDrink} with {milkAmount} and {sugarAmount}",
            "i want a {numberOfShots} {coffeeDrink} with {milkAmount} and {sugarAmount}",
            "get me a {numberOfShots} {coffeeDrink} with {milkAmount} and {sugarAmount}",
            "give me a {numberOfShots} {coffeeDrink} with {milkAmount} and {sugarAmount}",
            "i'd like a {numberOfShots} {coffeeDrink} with {milkAmount} and {sugarAmount}",
            "make me a {numberOfShots} {coffeeDrink} with {milkAmount} and {sugarAmount}",
            "may i have a {numberOfShots} {coffeeDrink} with {milkAmount} and {sugarAmount}",
            "brew a {numberOfShots} {coffeeDrink} with {sugarAmount} and {milkAmount}",
            "can i get a {numberOfShots} {coffeeDrink} with {sugarAmount} and {milkAmount}",
            "can i have a {numberOfShots} {coffeeDrink} with {sugarAmount} and {milkAmount}",
            "i want a {numberOfShots} {coffeeDrink} with {sugarAmount} and {milkAmount}",
            "get me a {numberOfShots} {coffeeDrink} with {sugarAmount} and {milkAmount}",
            "give me a {numberOfShots} {coffeeDrink} with {sugarAmount} and {milkAmount}",
            "i'd like a {numberOfShots} {coffeeDrink} with {sugarAmount} and {milkAmount}",
            "make me a {numberOfShots} {coffeeDrink} with {sugarAmount} and {milkAmount}",
            "may i have a {numberOfShots} {coffeeDrink} with {sugarAmount} and {milkAmount}",
            "brew a {numberOfShots} {coffeeDrink} with {milkAmount}",
            "can i get a {numberOfShots} {coffeeDrink} with {milkAmount}",
            "can i have a {numberOfShots} {coffeeDrink} with {milkAmount}",
            "i want a {numberOfShots} {coffeeDrink} with {milkAmount}",
            "get me a {numberOfShots} {coffeeDrink} with {milkAmount}",
            "give me a {numberOfShots} {coffeeDrink} with {milkAmount}",
            "i'd like a {numberOfShots} {coffeeDrink} with {milkAmount}",
            "make me a {numberOfShots} {coffeeDrink} with {milkAmount}",
            "may i have a {numberOfShots} {coffeeDrink} with {milkAmount}",
            "brew a {numberOfShots} {coffeeDrink} with {sugarAmount}",
            "can i get a {numberOfShots} {coffeeDrink} with {sugarAmount}",
            "can i have a {numberOfShots} {coffeeDrink} with {sugarAmount}",
            "i want a {numberOfShots} {coffeeDrink} with {sugarAmount}",
            "get me a {numberOfShots} {coffeeDrink} with {sugarAmount}",
            "give me a {numberOfShots} {coffeeDrink} with {sugarAmount}",
            "i'd like a {numberOfShots} {coffeeDrink} with {sugarAmount}",
            "make me a {numberOfShots} {coffeeDrink} with {sugarAmount}",
            "may i have a {numberOfShots} {coffeeDrink} with {sugarAmount}",
            "brew a {numberOfShots} {coffeeDrink}",
            "can i get a {numberOfShots} {coffeeDrink}",
            "can i have a {numberOfShots} {coffeeDrink}",
            "i want a {numberOfShots} {coffeeDrink}",
            "get me a {numberOfShots} {coffeeDrink}",
            "give me a {numberOfShots} {coffeeDrink}",
            "i'd like a {numberOfShots} {coffeeDrink}",
            "make me a {numberOfShots} {coffeeDrink}",
            "may i have a {numberOfShots} {coffeeDrink}",
            "brew a {coffeeDrink} with {milkAmount} and {sugarAmount}",
            "can i get a {coffeeDrink} with {milkAmount} and {sugarAmount}",
            "can i have a {coffeeDrink} with {milkAmount} and {sugarAmount}",
            "i want a {coffeeDrink} with {milkAmount} and {sugarAmount}",
            "get me a {coffeeDrink} with {milkAmount} and {sugarAmount}",
            "give me a {coffeeDrink} with {milkAmount} and {sugarAmount}",
            "i'd like a {coffeeDrink} with {milkAmount} and {sugarAmount}",
            "make me a {coffeeDrink} with {milkAmount} and {sugarAmount}",
            "may i have a {coffeeDrink} with {milkAmount} and {sugarAmount}",
            "brew a {coffeeDrink} with {sugarAmount} and {milkAmount}",
            "can i get a {coffeeDrink} with {sugarAmount} and {milkAmount}",
            "can i have a {coffeeDrink} with {sugarAmount} and {milkAmount}",
            "i want a {coffeeDrink} with {sugarAmount} and {milkAmount}",
            "get me a {coffeeDrink} with {sugarAmount} and {milkAmount}",
            "give me a {coffeeDrink} with {sugarAmount} and {milkAmount}",
            "i'd like a {coffeeDrink} with {sugarAmount} and {milkAmount}",
            "make me a {coffeeDrink} with {sugarAmount} and {milkAmount}",
            "may i have a {coffeeDrink} with {sugarAmount} and {milkAmount}",
            "brew a {coffeeDrink} with {milkAmount}",
            "can i get a {coffeeDrink} with {milkAmount}",
            "can i have a {coffeeDrink} with {milkAmount}",
            "i want a {coffeeDrink} with {milkAmount}",
            "get me a {coffeeDrink} with {milkAmount}",
            "give me a {coffeeDrink} with {milkAmount}",
            "i'd like a {coffeeDrink} with {milkAmount}",
            "make me a {coffeeDrink} with {milkAmount}",
            "may i have a {coffeeDrink} with {milkAmount}",
            "brew a {coffeeDrink} with {sugarAmount}",
            "can i get a {coffeeDrink} with {sugarAmount}",
            "can i have a {coffeeDrink} with {sugarAmount}",
            "i want a {coffeeDrink} with {sugarAmount}",
            "get me a {coffeeDrink} with {sugarAmount}",
            "give me a {coffeeDrink} with {sugarAmount}",
            "i'd like a {coffeeDrink} with {sugarAmount}",
            "make me a {coffeeDrink} with {sugarAmount}",
            "may i have a {coffeeDrink} with {sugarAmount}",
            "brew a {coffeeDrink}",
            "can i get a {coffeeDrink}",
            "can i have a {coffeeDrink}",
            "i want a {coffeeDrink}",
            "get me a {coffeeDrink}",
            "give me a {coffeeDrink}",
            "i'd like a {coffeeDrink}",
            "make me a {coffeeDrink}",
            "may i have a {coffeeDrink}"
          ]
        }
      ],
      "types": [
        {
          "name": "coffeeDrink",
          "values": [
            {
              "name": {
                "value": "americano"
              }
            },
            {
              "name": {
                "value": "cappuccino"
              }
            },
            {
              "name": {
                "value": "espresso"
              }
            },
            {
              "name": {
                "value": "iced mocha"
              }
            },
            {
              "name": {
                "value": "latte"
              }
            },
            {
              "name": {
                "value": "mocha"
              }
            },
            {
              "name": {
                "value": "coffee"
              }
            },
            {
              "name": {
                "value": "drip coffee"
              }
            },
            {
              "name": {
                "value": "house coffee"
              }
            },
            {
              "name": {
                "value": "iced coffee"
              }
            }
          ]
        },
        {
          "name": "milkAmount",
          "values": [
            {
              "name": {
                "value": "a little bit of milk"
              }
            },
            {
              "name": {
                "value": "a little bit of skim milk"
              }
            },
            {
              "name": {
                "value": "a little bit of whole milk"
              }
            },
            {
              "name": {
                "value": "a little bit of soy milk"
              }
            },
            {
              "name": {
                "value": "a little bit of almond milk"
              }
            },
            {
              "name": {
                "value": "a little bit of cream"
              }
            },
            {
              "name": {
                "value": "a bit of milk"
              }
            },
            {
              "name": {
                "value": "a bit of skim milk"
              }
            },
            {
              "name": {
                "value": "a bit of whole milk"
              }
            },
            {
              "name": {
                "value": "a bit of soy milk"
              }
            },
            {
              "name": {
                "value": "a bit of almond milk"
              }
            },
            {
              "name": {
                "value": "a bit of cream"
              }
            },
            {
              "name": {
                "value": "some milk"
              }
            },
            {
              "name": {
                "value": "some skim milk"
              }
            },
            {
              "name": {
                "value": "some whole milk"
              }
            },
            {
              "name": {
                "value": "some soy milk"
              }
            },
            {
              "name": {
                "value": "some almond milk"
              }
            },
            {
              "name": {
                "value": "some cream"
              }
            },
            {
              "name": {
                "value": "lots of milk"
              }
            },
            {
              "name": {
                "value": "lots of skim milk"
              }
            },
            {
              "name": {
                "value": "lots of whole milk"
              }
            },
            {
              "name": {
                "value": "lots of soy milk"
              }
            },
            {
              "name": {
                "value": "lots of almond milk"
              }
            },
            {
              "name": {
                "value": "lots of cream"
              }
            },
            {
              "name": {
                "value": "a lot of milk"
              }
            },
            {
              "name": {
                "value": "a lot of whole milk"
              }
            },
            {
              "name": {
                "value": "a lot of skim milk"
              }
            },
            {
              "name": {
                "value": "a lot of soy milk"
              }
            },
            {
              "name": {
                "value": "a lot of almond milk"
              }
            },
            {
              "name": {
                "value": "a lot of cream"
              }
            },
            {
              "name": {
                "value": "milk"
              }
            },
            {
              "name": {
                "value": "skim milk"
              }
            },
            {
              "name": {
                "value": "whole milk"
              }
            },
            {
              "name": {
                "value": "cream"
              }
            },
            {
              "name": {
                "value": "soy milk"
              }
            },
            {
              "name": {
                "value": "almond milk"
              }
            }
          ]
        },
        {
          "name": "numberOfShots",
          "values": [
            {
              "name": {
                "value": "single shot"
              }
            },
            {
              "name": {
                "value": "double shot"
              }
            },
            {
              "name": {
                "value": "triple shot"
              }
            }
          ]
        },
        {
          "name": "roast",
          "values": [
            {
              "name": {
                "value": "light roast"
              }
            },
            {
              "name": {
                "value": "medium roast"
              }
            },
            {
              "name": {
                "value": "dark roast"
              }
            }
          ]
        },
        {
          "name": "size",
          "values": [
            {
              "name": {
                "value": "small"
              }
            },
            {
              "name": {
                "value": "medium"
              }
            },
            {
              "name": {
                "value": "large"
              }
            },
            {
              "name": {
                "value": "eight ounce"
              }
            },
            {
              "name": {
                "value": "twelve ounce"
              }
            },
            {
              "name": {
                "value": "sixteen ounce"
              }
            },
            {
              "name": {
                "value": "twenty ounce"
              }
            }
          ]
        },
        {
          "name": "sugarAmount",
          "values": [
            {
              "name": {
                "value": "a little bit of sugar"
              }
            },
            {
              "name": {
                "value": "a little bit of brown sugar"
              }
            },
            {
              "name": {
                "value": "a little bit of sweetener"
              }
            },
            {
              "name": {
                "value": "a bit of sugar"
              }
            },
            {
              "name": {
                "value": "a bit of brown sugar"
              }
            },
            {
              "name": {
                "value": "a bit of sweetener"
              }
            },
            {
              "name": {
                "value": "some sugar"
              }
            },
            {
              "name": {
                "value": "some brown sugar"
              }
            },
            {
              "name": {
                "value": "some sweetener"
              }
            },
            {
              "name": {
                "value": "a lot of sugar"
              }
            },
            {
              "name": {
                "value": "a lot of brown sugar"
              }
            },
            {
              "name": {
                "value": "a lot of sweetener"
              }
            },
            {
              "name": {
                "value": "lots of sugar"
              }
            },
            {
              "name": {
                "value": "lots of brown sugar"
              }
            },
            {
              "name": {
                "value": "lots of sweetener"
              }
            },
            {
              "name": {
                "value": "sugar"
              }
            },
            {
              "name": {
                "value": "brown sugar"
              }
            },
            {
              "name": {
                "value": "sweetener"
              }
            }
          ]
        }
      ]
    }
  }
}
